{
  "studentData": [
    {
      "number": "123312",
      "name": "阿萨德1",
      "class": "1151",
      "ages": "12",
      "gender": "nan",
      "hobby": "123",
      "id": 1
    },
    {
      "number": "123312",
      "name": "阿萨德",
      "class": "1151",
      "ages": "12",
      "gender": "3",
      "id": 3
    },
    {
      "number": "123312",
      "name": "阿萨德",
      "class": "1151",
      "ages": "12",
      "gender": "3",
      "id": 4
    },
    {
      "number": "123312",
      "name": "阿萨德",
      "class": "1151",
      "ages": "12",
      "gender": "3",
      "id": 5
    },
    {
      "number": "123312",
      "name": "阿萨德",
      "class": "1151",
      "ages": "12",
      "gender": "3",
      "id": 6
    },
    {
      "number": "123312",
      "name": "阿萨德",
      "class": "1151",
      "ages": "12",
      "gender": "3",
      "id": 7
    },
    {
      "number": "123312",
      "name": "阿萨德",
      "class": "1151",
      "ages": "12",
      "gender": "3",
      "id": 8
    },
    {
      "number": "123312",
      "name": "阿萨德",
      "class": "1151",
      "ages": "12",
      "gender": "31",
      "id": 9
    },
    {
      "number": "123312",
      "name": "阿萨德",
      "class": "1151",
      "ages": "12",
      "gender": "3",
      "id": 16
    },
    {
      "number": "1",
      "name": "2",
      "class": "1152",
      "ages": "21",
      "gender": "12",
      "id": 17
    },
    {
      "number": "123",
      "name": "123",
      "class": "1152",
      "ages": "321",
      "gender": "123",
      "id": 18
    },
    {
      "number": "1111111",
      "name": "asd ",
      "class": "1151",
      "ages": "123",
      "gender": "213",
      "hobby": "1232",
      "id": 19
    },
    {
      "number": "22222222",
      "name": "阿大声道",
      "class": "1151",
      "ages": "231",
      "gender": "123",
      "hobby": "132",
      "id": 20
    },
    {
      "number": "12",
      "name": "12",
      "class": "123",
      "ages": "123",
      "gender": "12",
      "hobby": "12",
      "id": 22
    },
    {
      "number": "123",
      "name": "123",
      "class": "1151",
      "ages": "1151",
      "gender": "1151",
      "hobby": "1151",
      "id": 23
    },
    {
      "number": "1151",
      "name": "1151",
      "class": "1151",
      "ages": "1151",
      "gender": "1151",
      "hobby": "1151",
      "id": 24
    },
    {
      "number": "1151",
      "name": "1151",
      "class": "1151",
      "ages": "1151",
      "gender": "1151",
      "hobby": "1151",
      "id": 25
    },
    {
      "number": "123",
      "name": "123312",
      "class": "1151",
      "ages": "123",
      "gender": "123",
      "hobby": "123",
      "id": 26
    },
    {
      "number": "1231231",
      "name": "123123213",
      "class": "1151",
      "ages": "132",
      "gender": "12",
      "hobby": "12",
      "id": 27
    }
  ],
  "error": []
}
